pixelArray_tb.vcd
$date
	Thu Nov 18 21:12:13 2021
$end
$version
	Icarus Verilog
$end
$timescale
	1ps
$end
$scope module pixelArray_tb $end
$var wire 1 ! anaReset $end
$var wire 1 " pixData4 $end
$var wire 1 # pixData3 $end
$var wire 1 $ pixData2 $end
$var wire 1 % pixData1 $end
$var wire 8 & p4 [7:0] $end
$var wire 8 ' p3 [7:0] $end
$var wire 8 ( p2 [7:0] $end
$var wire 8 ) p1 [7:0] $end
$var wire 1 * anaRamp $end
$var wire 1 + anaBias1 $end
$var reg 1 , clk $end
$var reg 1 - convert $end
$var reg 16 . data [15:0] $end
$var reg 1 / erase $end
$var reg 1 0 expose $end
$var reg 3 1 next_state [2:0] $end
$var reg 8 2 pixelDataOut1 [7:0] $end
$var reg 8 3 pixelDataOut2 [7:0] $end
$var reg 8 4 pixelDataOut3 [7:0] $end
$var reg 8 5 pixelDataOut4 [7:0] $end
$var reg 1 6 read1 $end
$var reg 1 7 read2 $end
$var reg 1 8 reset $end
$var reg 3 9 state [2:0] $end
$var integer 32 : counter [31:0] $end
$scope module ps1 $end
$var wire 1 / ERASE $end
$var wire 1 0 EXPOSE $end
$var wire 1 * RAMP $end
$var wire 1 6 READ $end
$var wire 1 ! RESET $end
$var wire 1 + VBN1 $end
$var wire 8 ; DATA [7:0] $end
$var reg 1 < cmp $end
$var reg 8 = p_data [7:0] $end
$var real 1 > adc $end
$var real 1 ? lsb $end
$var real 1 @ tmp $end
$var real 1 A v_erase $end
$upscope $end
$scope module ps2 $end
$var wire 1 / ERASE $end
$var wire 1 0 EXPOSE $end
$var wire 1 * RAMP $end
$var wire 1 6 READ $end
$var wire 1 ! RESET $end
$var wire 1 + VBN1 $end
$var wire 8 B DATA [7:0] $end
$var reg 1 C cmp $end
$var reg 8 D p_data [7:0] $end
$var real 1 E adc $end
$var real 1 F lsb $end
$var real 1 G tmp $end
$var real 1 H v_erase $end
$upscope $end
$scope module ps3 $end
$var wire 1 / ERASE $end
$var wire 1 0 EXPOSE $end
$var wire 1 * RAMP $end
$var wire 1 7 READ $end
$var wire 1 ! RESET $end
$var wire 1 + VBN1 $end
$var wire 8 I DATA [7:0] $end
$var reg 1 J cmp $end
$var reg 8 K p_data [7:0] $end
$var real 1 L adc $end
$var real 1 M lsb $end
$var real 1 N tmp $end
$var real 1 O v_erase $end
$upscope $end
$scope module ps4 $end
$var wire 1 / ERASE $end
$var wire 1 0 EXPOSE $end
$var wire 1 * RAMP $end
$var wire 1 7 READ $end
$var wire 1 ! RESET $end
$var wire 1 + VBN1 $end
$var wire 8 P DATA [7:0] $end
$var reg 1 Q cmp $end
$var reg 8 R p_data [7:0] $end
$var real 1 S adc $end
$var real 1 T lsb $end
$var real 1 U tmp $end
$var real 1 V v_erase $end
$upscope $end
$upscope $end
$enddefinitions $end
#500000
$dumpvars
r1.2 V
r0 U
r0.004705882352941176 T
r0 S
bx R
xQ
bx P
r1.2 O
r0 N
r0.004705882352941176 M
r0 L
bx K
xJ
bx I
r1.2 H
r0 G
r0.004705882352941176 F
r0 E
bx D
xC
bx B
r1.2 A
r0 @
r0.004705882352941176 ?
r0 >
bx =
x<
bx ;
b0 :
b0 9
08
x7
x6
b0x 5
b0x 4
b0x 3
b0 2
b0 1
x0
x/
b0 .
0-
1,
x+
0*
bx )
bx (
bx '
bx &
x%
x$
x#
x"
1!
$end
#1000000
0#
0"
0%
0$
bz '
bz I
bz &
bz P
bz )
bz ;
bz (
bz B
0Q
bz R
r1.2 U
0J
bz K
r1.2 N
0C
bz D
r1.2 G
0<
bz =
r1.2 @
00
07
06
1/
0+
0,
#1500000
b0 5
b0 4
b0 3
b1 :
1,
#2000000
0,
#2500000
b10 :
1,
#3000000
0,
#3500000
b11 :
1,
#4000000
0,
#4500000
b100 :
1,
#5000000
0,
#5500000
b101 :
1,
#6000000
0,
#6500000
b101 9
b1 1
b110 :
1,
#7000000
b0 =
b0 D
b0 K
b0 R
0/
0,
#7500000
b1 9
b0 :
1,
#8000000
10
0,
#8500000
r1.197505882352941 U
r1.199388235294118 N
r1.197647058823529 G
r1.19995294117647 @
b1 :
1+
1,
#9000000
0+
0,
#9500000
r1.199905882352941 @
r1.195294117647059 G
r1.198776470588235 N
r1.195011764705882 U
b10 :
1+
1,
#10000000
0+
0,
#10500000
r1.192517647058824 U
r1.198164705882353 N
r1.192941176470588 G
r1.199858823529411 @
b11 :
1+
1,
#11000000
0+
0,
#11500000
r1.199811764705882 @
r1.190588235294117 G
r1.197552941176471 N
r1.190023529411765 U
b100 :
1+
1,
#12000000
0+
0,
#12500000
r1.187529411764706 U
r1.196941176470588 N
r1.188235294117647 G
r1.199764705882352 @
b101 :
1+
1,
#13000000
0+
0,
#13500000
r1.199717647058823 @
r1.185882352941176 G
r1.196329411764706 N
r1.185035294117647 U
b110 :
1+
1,
#14000000
0+
0,
#14500000
r1.182541176470589 U
r1.195717647058824 N
r1.183529411764705 G
r1.199670588235293 @
b111 :
1+
1,
#15000000
0+
0,
#15500000
r1.199623529411764 @
r1.181176470588235 G
r1.195105882352941 N
r1.18004705882353 U
b1000 :
1+
1,
#16000000
0+
0,
#16500000
r1.177552941176471 U
r1.194494117647059 N
r1.178823529411764 G
r1.199576470588234 @
b1001 :
1+
1,
#17000000
0+
0,
#17500000
r1.199529411764705 @
r1.176470588235293 G
r1.193882352941177 N
r1.175058823529412 U
b1010 :
1+
1,
#18000000
0+
0,
#18500000
r1.172564705882354 U
r1.193270588235295 N
r1.174117647058823 G
r1.199482352941175 @
b1011 :
1+
1,
#19000000
0+
0,
#19500000
r1.199435294117646 @
r1.171764705882352 G
r1.192658823529412 N
r1.170070588235295 U
b1100 :
1+
1,
#20000000
0+
0,
#20500000
r1.167576470588236 U
r1.19204705882353 N
r1.169411764705881 G
r1.199388235294116 @
b1101 :
1+
1,
#21000000
0+
0,
#21500000
r1.199341176470587 @
r1.167058823529411 G
r1.191435294117648 N
r1.165082352941177 U
b1110 :
1+
1,
#22000000
0+
0,
#22500000
r1.162588235294119 U
r1.190823529411765 N
r1.16470588235294 G
r1.199294117647057 @
b1111 :
1+
1,
#23000000
0+
0,
#23500000
r1.199247058823528 @
r1.162352941176469 G
r1.190211764705883 N
r1.16009411764706 U
b10000 :
1+
1,
#24000000
0+
0,
#24500000
r1.157600000000001 U
r1.189600000000001 N
r1.159999999999999 G
r1.199199999999998 @
b10001 :
1+
1,
#25000000
0+
0,
#25500000
r1.199152941176469 @
r1.157647058823528 G
r1.188988235294118 N
r1.155105882352942 U
b10010 :
1+
1,
#26000000
0+
0,
#26500000
r1.152611764705884 U
r1.188376470588236 N
r1.155294117647057 G
r1.199105882352939 @
b10011 :
1+
1,
#27000000
0+
0,
#27500000
r1.19905882352941 @
r1.152941176470587 G
r1.187764705882354 N
r1.150117647058825 U
b10100 :
1+
1,
#28000000
0+
0,
#28500000
r1.147623529411766 U
r1.187152941176471 N
r1.150588235294116 G
r1.19901176470588 @
b10101 :
1+
1,
#29000000
0+
0,
#29500000
r1.198964705882351 @
r1.148235294117645 G
r1.186541176470589 N
r1.145129411764707 U
b10110 :
1+
1,
#30000000
0+
0,
#30500000
r1.142635294117649 U
r1.185929411764707 N
r1.145882352941175 G
r1.198917647058821 @
b10111 :
1+
1,
#31000000
0+
0,
#31500000
r1.198870588235292 @
r1.143529411764704 G
r1.185317647058824 N
r1.14014117647059 U
b11000 :
1+
1,
#32000000
0+
0,
#32500000
r1.137647058823531 U
r1.184705882352942 N
r1.141176470588233 G
r1.198823529411762 @
b11001 :
1+
1,
#33000000
0+
0,
#33500000
r1.198776470588233 @
r1.138823529411763 G
r1.18409411764706 N
r1.135152941176472 U
b11010 :
1+
1,
#34000000
0+
0,
#34500000
r1.132658823529413 U
r1.183482352941178 N
r1.136470588235292 G
r1.198729411764703 @
b11011 :
1+
1,
#35000000
0+
0,
#35500000
r1.198682352941174 @
r1.134117647058821 G
r1.182870588235295 N
r1.130164705882355 U
b11100 :
1+
1,
#36000000
0+
0,
#36500000
r1.127670588235296 U
r1.182258823529413 N
r1.131764705882351 G
r1.198635294117644 @
b11101 :
1+
1,
#37000000
0+
0,
#37500000
r1.198588235294115 @
r1.12941176470588 G
r1.181647058823531 N
r1.125176470588237 U
b11110 :
1+
1,
#38000000
0+
0,
#38500000
r1.122682352941178 U
r1.181035294117648 N
r1.127058823529409 G
r1.198541176470585 @
b11111 :
1+
1,
#39000000
0+
0,
#39500000
r1.198494117647056 @
r1.124705882352939 G
r1.180423529411766 N
r1.12018823529412 U
b100000 :
1+
1,
#40000000
0+
0,
#40500000
r1.117694117647061 U
r1.179811764705884 N
r1.122352941176468 G
r1.198447058823526 @
b100001 :
1+
1,
#41000000
0+
0,
#41500000
r1.198399999999997 @
r1.119999999999997 G
r1.179200000000001 N
r1.115200000000002 U
b100010 :
1+
1,
#42000000
0+
0,
#42500000
r1.112705882352943 U
r1.178588235294119 N
r1.117647058823527 G
r1.198352941176467 @
b100011 :
1+
1,
#43000000
0+
0,
#43500000
r1.198305882352938 @
r1.115294117647056 G
r1.177976470588237 N
r1.110211764705885 U
b100100 :
1+
1,
#44000000
0+
0,
#44500000
r1.107717647058826 U
r1.177364705882354 N
r1.112941176470585 G
r1.198258823529408 @
b100101 :
1+
1,
#45000000
0+
0,
#45500000
r1.198211764705879 @
r1.110588235294115 G
r1.176752941176472 N
r1.105223529411767 U
b100110 :
1+
1,
#46000000
0+
0,
#46500000
r1.102729411764708 U
r1.17614117647059 N
r1.108235294117644 G
r1.198164705882349 @
b100111 :
1+
1,
#47000000
0+
0,
#47500000
r1.19811764705882 @
r1.105882352941173 G
r1.175529411764707 N
r1.10023529411765 U
b101000 :
1+
1,
#48000000
0+
0,
#48500000
r1.097741176470591 U
r1.174917647058825 N
r1.103529411764703 G
r1.19807058823529 @
b101001 :
1+
1,
#49000000
0+
0,
#49500000
r1.19802352941176 @
r1.101176470588232 G
r1.174305882352943 N
r1.095247058823532 U
b101010 :
1+
1,
#50000000
0+
0,
#50500000
r1.092752941176473 U
r1.173694117647061 N
r1.098823529411761 G
r1.197976470588231 @
b101011 :
1+
1,
#51000000
0+
0,
#51500000
r1.197929411764701 @
r1.096470588235291 G
r1.173082352941178 N
r1.090258823529415 U
b101100 :
1+
1,
#52000000
0+
0,
#52500000
r1.087764705882356 U
r1.172470588235296 N
r1.09411764705882 G
r1.197882352941172 @
b101101 :
1+
1,
#53000000
0+
0,
#53500000
r1.197835294117642 @
r1.091764705882349 G
r1.171858823529414 N
r1.085270588235297 U
b101110 :
1+
1,
#54000000
0+
0,
#54500000
r1.082776470588238 U
r1.171247058823531 N
r1.089411764705879 G
r1.197788235294113 @
b101111 :
1+
1,
#55000000
0+
0,
#55500000
r1.197741176470583 @
r1.087058823529408 G
r1.170635294117649 N
r1.08028235294118 U
b110000 :
1+
1,
#56000000
0+
0,
#56500000
r1.077788235294121 U
r1.170023529411767 N
r1.084705882352937 G
r1.197694117647054 @
b110001 :
1+
1,
#57000000
0+
0,
#57500000
r1.197647058823524 @
r1.082352941176467 G
r1.169411764705884 N
r1.075294117647062 U
b110010 :
1+
1,
#58000000
0+
0,
#58500000
r1.072800000000003 U
r1.168800000000002 N
r1.079999999999996 G
r1.197599999999995 @
b110011 :
1+
1,
#59000000
0+
0,
#59500000
r1.197552941176465 @
r1.077647058823525 G
r1.16818823529412 N
r1.070305882352945 U
b110100 :
1+
1,
#60000000
0+
0,
#60500000
r1.067811764705886 U
r1.167576470588237 N
r1.075294117647055 G
r1.197505882352936 @
b110101 :
1+
1,
#61000000
0+
0,
#61500000
r1.197458823529406 @
r1.072941176470584 G
r1.166964705882355 N
r1.065317647058827 U
b110110 :
1+
1,
#62000000
0+
0,
#62500000
r1.062823529411768 U
r1.166352941176473 N
r1.070588235294113 G
r1.197411764705877 @
b110111 :
1+
1,
#63000000
0+
0,
#63500000
r1.197364705882347 @
r1.068235294117643 G
r1.165741176470591 N
r1.06032941176471 U
b111000 :
1+
1,
#64000000
0+
0,
#64500000
r1.057835294117651 U
r1.165129411764708 N
r1.065882352941172 G
r1.197317647058818 @
b111001 :
1+
1,
#65000000
0+
0,
#65500000
r1.197270588235288 @
r1.063529411764701 G
r1.164517647058826 N
r1.055341176470592 U
b111010 :
1+
1,
#66000000
0+
0,
#66500000
r1.052847058823533 U
r1.163905882352944 N
r1.061176470588231 G
r1.197223529411759 @
b111011 :
1+
1,
#67000000
0+
0,
#67500000
r1.197176470588229 @
r1.05882352941176 G
r1.163294117647061 N
r1.050352941176474 U
b111100 :
1+
1,
#68000000
0+
0,
#68500000
r1.047858823529416 U
r1.162682352941179 N
r1.056470588235289 G
r1.1971294117647 @
b111101 :
1+
1,
#69000000
0+
0,
#69500000
r1.19708235294117 @
r1.054117647058818 G
r1.162070588235297 N
r1.045364705882357 U
b111110 :
1+
1,
#70000000
0+
0,
#70500000
r1.042870588235298 U
r1.161458823529414 N
r1.051764705882348 G
r1.197035294117641 @
b111111 :
1+
1,
#71000000
0+
0,
#71500000
r1.196988235294111 @
r1.049411764705877 G
r1.160847058823532 N
r1.040376470588239 U
b1000000 :
1+
1,
#72000000
0+
0,
#72500000
r1.037882352941181 U
r1.16023529411765 N
r1.047058823529406 G
r1.196941176470582 @
b1000001 :
1+
1,
#73000000
0+
0,
#73500000
r1.196894117647052 @
r1.044705882352936 G
r1.159623529411767 N
r1.035388235294122 U
b1000010 :
1+
1,
#74000000
0+
0,
#74500000
r1.032894117647063 U
r1.159011764705885 N
r1.042352941176465 G
r1.196847058823523 @
b1000011 :
1+
1,
#75000000
0+
0,
#75500000
r1.196799999999993 @
r1.039999999999994 G
r1.158400000000003 N
r1.030400000000004 U
b1000100 :
1+
1,
#76000000
0+
0,
#76500000
r1.027905882352946 U
r1.15778823529412 N
r1.037647058823524 G
r1.196752941176464 @
b1000101 :
1+
1,
#77000000
0+
0,
#77500000
r1.196705882352934 @
r1.035294117647053 G
r1.157176470588238 N
r1.025411764705887 U
b1000110 :
1+
1,
#78000000
0+
0,
#78500000
r1.022917647058828 U
r1.156564705882356 N
r1.032941176470582 G
r1.196658823529405 @
b1000111 :
1+
1,
#79000000
0+
0,
#79500000
r1.196611764705875 @
r1.030588235294112 G
r1.155952941176474 N
r1.020423529411769 U
b1001000 :
1+
1,
#80000000
0+
0,
#80500000
r1.017929411764711 U
r1.155341176470591 N
r1.028235294117641 G
r1.196564705882346 @
b1001001 :
1+
1,
#81000000
0+
0,
#81500000
r1.196517647058816 @
r1.02588235294117 G
r1.154729411764709 N
r1.015435294117652 U
b1001010 :
1+
1,
#82000000
0+
0,
#82500000
r1.012941176470593 U
r1.154117647058827 N
r1.0235294117647 G
r1.196470588235287 @
b1001011 :
1+
1,
#83000000
0+
0,
#83500000
r1.196423529411757 @
r1.021176470588229 G
r1.153505882352944 N
r1.010447058823534 U
b1001100 :
1+
1,
#84000000
0+
0,
#84500000
r1.007952941176476 U
r1.152894117647062 N
r1.018823529411758 G
r1.196376470588228 @
b1001101 :
1+
1,
#85000000
0+
0,
#85500000
r1.196329411764698 @
r1.016470588235288 G
r1.15228235294118 N
r1.005458823529417 U
b1001110 :
1+
1,
#86000000
0+
0,
#86500000
r1.002964705882358 U
r1.151670588235297 N
r1.014117647058817 G
r1.196282352941169 @
b1001111 :
1+
1,
#87000000
0+
0,
#87500000
r1.196235294117639 @
r1.011764705882346 G
r1.151058823529415 N
r1.000470588235299 U
b1010000 :
1+
1,
#88000000
0+
0,
#88500000
r0.9979764705882405 U
r1.150447058823533 N
r1.009411764705876 G
r1.19618823529411 @
b1010001 :
1+
1,
#89000000
0+
0,
#89500000
r1.19614117647058 @
r1.007058823529405 G
r1.14983529411765 N
r0.9954823529411816 U
b1010010 :
1+
1,
#90000000
0+
0,
#90500000
r0.9929882352941227 U
r1.149223529411768 N
r1.004705882352934 G
r1.196094117647051 @
b1010011 :
1+
1,
#91000000
0+
0,
#91500000
r1.196047058823521 @
r1.002352941176464 G
r1.148611764705886 N
r0.9904941176470639 U
b1010100 :
1+
1,
#92000000
0+
0,
#92500000
r0.988000000000005 U
r1.148000000000003 N
r0.9999999999999932 G
r1.195999999999992 @
b1010101 :
1+
1,
#93000000
0+
0,
#93500000
r1.195952941176462 @
r0.9976470588235227 G
r1.147388235294121 N
r0.9855058823529461 U
b1010110 :
1+
1,
#94000000
0+
0,
#94500000
r0.9830117647058872 U
r1.146776470588239 N
r0.9952941176470521 G
r1.195905882352932 @
b1010111 :
1+
1,
#95000000
0+
0,
#95500000
r1.195858823529403 @
r0.9929411764705816 G
r1.146164705882357 N
r0.9805176470588284 U
b1011000 :
1+
1,
#96000000
0+
0,
#96500000
r0.9780235294117695 U
r1.145552941176474 N
r0.990588235294111 G
r1.195811764705873 @
b1011001 :
1+
1,
#97000000
0+
0,
#97500000
r1.195764705882344 @
r0.9882352941176404 G
r1.144941176470592 N
r0.9755294117647106 U
b1011010 :
1+
1,
#98000000
0+
0,
#98500000
r0.9730352941176518 U
r1.14432941176471 N
r0.9858823529411699 G
r1.195717647058814 @
b1011011 :
1+
1,
#99000000
0+
0,
#99500000
r1.195670588235285 @
r0.9835294117646993 G
r1.143717647058827 N
r0.9705411764705929 U
b1011100 :
1+
1,
#100000000
0+
0,
#100500000
r0.968047058823534 U
r1.143105882352945 N
r0.9811764705882288 G
r1.195623529411755 @
b1011101 :
1+
1,
#101000000
0+
0,
#101500000
r1.195576470588226 @
r0.9788235294117582 G
r1.142494117647063 N
r0.9655529411764752 U
b1011110 :
1+
1,
#102000000
0+
0,
#102500000
r0.9630588235294163 U
r1.14188235294118 N
r0.9764705882352877 G
r1.195529411764696 @
b1011111 :
1+
1,
#103000000
0+
0,
#103500000
r1.195482352941167 @
r0.9741176470588171 G
r1.141270588235298 N
r0.9605647058823574 U
b1100000 :
1+
1,
#104000000
0+
0,
#104500000
r0.9580705882352986 U
r1.140658823529416 N
r0.9717647058823465 G
r1.195435294117637 @
b1100001 :
1+
1,
#105000000
0+
0,
#105500000
r1.195388235294108 @
r0.969411764705876 G
r1.140047058823533 N
r0.9555764705882397 U
b1100010 :
1+
1,
#106000000
0+
0,
#106500000
r0.9530823529411808 U
r1.139435294117651 N
r0.9670588235294054 G
r1.195341176470578 @
b1100011 :
1+
1,
#107000000
0+
0,
#107500000
r1.195294117647049 @
r0.9647058823529349 G
r1.138823529411769 N
r0.950588235294122 U
b1100100 :
1+
1,
#108000000
0+
0,
#108500000
r0.9480941176470631 U
r1.138211764705886 N
r0.9623529411764643 G
r1.195247058823519 @
b1100101 :
1+
1,
#109000000
0+
0,
#109500000
r1.19519999999999 @
r0.9599999999999937 G
r1.137600000000004 N
r0.9456000000000042 U
b1100110 :
1+
1,
#110000000
0+
0,
#110500000
r0.9431058823529453 U
r1.136988235294122 N
r0.9576470588235232 G
r1.19515294117646 @
b1100111 :
1+
1,
#111000000
0+
0,
#111500000
r1.195105882352931 @
r0.9552941176470526 G
r1.13637647058824 N
r0.9406117647058865 U
b1101000 :
1+
1,
#112000000
0+
0,
#112500000
r0.9381176470588276 U
r1.135764705882357 N
r0.9529411764705821 G
r1.195058823529401 @
b1101001 :
1+
1,
#113000000
0+
0,
#113500000
r1.195011764705872 @
r0.9505882352941115 G
r1.135152941176475 N
r0.9356235294117687 U
b1101010 :
1+
1,
#114000000
0+
0,
#114500000
r0.9331294117647099 U
r1.134541176470593 N
r0.948235294117641 G
r1.194964705882342 @
b1101011 :
1+
1,
#115000000
0+
0,
#115500000
r1.194917647058813 @
r0.9458823529411704 G
r1.13392941176471 N
r0.930635294117651 U
b1101100 :
1+
1,
#116000000
0+
0,
#116500000
r0.9281411764705921 U
r1.133317647058828 N
r0.9435294117646998 G
r1.194870588235283 @
b1101101 :
1+
1,
#117000000
0+
0,
#117500000
r1.194823529411754 @
r0.9411764705882293 G
r1.132705882352946 N
r0.9256470588235333 U
b1101110 :
1+
1,
#118000000
0+
0,
#118500000
r0.9231529411764744 U
r1.132094117647063 N
r0.9388235294117587 G
r1.194776470588224 @
b1101111 :
1+
1,
#119000000
0+
0,
#119500000
r1.194729411764695 @
r0.9364705882352882 G
r1.131482352941181 N
r0.9206588235294155 U
b1110000 :
1+
1,
#120000000
0+
0,
#120500000
r0.9181647058823567 U
r1.130870588235299 N
r0.9341176470588176 G
r1.194682352941165 @
b1110001 :
1+
1,
#121000000
0+
0,
#121500000
r1.194635294117636 @
r0.9317647058823471 G
r1.130258823529416 N
r0.9156705882352978 U
b1110010 :
1+
1,
#122000000
0+
0,
#122500000
r0.9131764705882389 U
r1.129647058823534 N
r0.9294117647058765 G
r1.194588235294106 @
b1110011 :
1+
1,
#123000000
0+
0,
#123500000
r1.194541176470577 @
r0.9270588235294059 G
r1.129035294117652 N
r0.9106823529411801 U
b1110100 :
1+
1,
#124000000
0+
0,
#124500000
r0.9081882352941212 U
r1.128423529411769 N
r0.9247058823529354 G
r1.194494117647047 @
b1110101 :
1+
1,
#125000000
0+
0,
#125500000
r1.194447058823518 @
r0.9223529411764648 G
r1.127811764705887 N
r0.9056941176470623 U
b1110110 :
1+
1,
#126000000
0+
0,
#126500000
r0.9032000000000034 U
r1.127200000000005 N
r0.9199999999999943 G
r1.194399999999988 @
b1110111 :
1+
1,
#127000000
0+
0,
#127500000
r1.194352941176459 @
r0.9176470588235237 G
r1.126588235294123 N
r0.9007058823529446 U
b1111000 :
1+
1,
#128000000
0+
0,
#128500000
r0.8982117647058857 U
r1.12597647058824 N
r0.9152941176470532 G
r1.194305882352929 @
b1111001 :
1+
1,
#129000000
0+
0,
#129500000
r1.1942588235294 @
r0.9129411764705826 G
r1.125364705882358 N
r0.8957176470588268 U
b1111010 :
1+
1,
#130000000
0+
0,
#130500000
r0.893223529411768 U
r1.124752941176476 N
r0.910588235294112 G
r1.19421176470587 @
b1111011 :
1+
1,
#131000000
0+
0,
#131500000
r1.194164705882341 @
r0.9082352941176415 G
r1.124141176470593 N
r0.8907294117647091 U
b1111100 :
1+
1,
#132000000
0+
0,
#132500000
r0.8882352941176502 U
r1.123529411764711 N
r0.9058823529411709 G
r1.194117647058811 @
b1111101 :
1+
1,
#133000000
0+
0,
#133500000
r1.194070588235282 @
r0.9035294117647004 G
r1.122917647058829 N
r0.8857411764705914 U
b1111110 :
1+
1,
#134000000
0+
0,
#134500000
r0.8832470588235325 U
r1.122305882352946 N
r0.9011764705882298 G
r1.194023529411752 @
b1111111 :
1+
1,
#135000000
0+
0,
#135500000
r1.193976470588223 @
r0.8988235294117592 G
r1.121694117647064 N
r0.8807529411764736 U
b10000000 :
1+
1,
#136000000
0+
0,
#136500000
r0.8782588235294148 U
r1.121082352941182 N
r0.8964705882352887 G
r1.193929411764693 @
b10000001 :
1+
1,
#137000000
0+
0,
#137500000
r1.193882352941164 @
r0.8941176470588181 G
r1.120470588235299 N
r0.8757647058823559 U
b10000010 :
1+
1,
#138000000
0+
0,
#138500000
r0.873270588235297 U
r1.119858823529417 N
r0.8917647058823476 G
r1.193835294117634 @
b10000011 :
1+
1,
#139000000
0+
0,
#139500000
r1.193788235294104 @
r0.889411764705877 G
r1.119247058823535 N
r0.8707764705882381 U
b10000100 :
1+
1,
#140000000
0+
0,
#140500000
r0.8682823529411793 U
r1.118635294117653 N
r0.8870588235294065 G
r1.193741176470575 @
b10000101 :
1+
1,
#141000000
0+
0,
#141500000
r1.193694117647045 @
r0.8847058823529359 G
r1.11802352941177 N
r0.8657882352941204 U
b10000110 :
1+
1,
#142000000
0+
0,
#142500000
r0.8632941176470615 U
r1.117411764705888 N
r0.8823529411764653 G
r1.193647058823516 @
b10000111 :
1+
1,
#143000000
0+
0,
#143500000
r1.193599999999986 @
r0.8799999999999948 G
r1.116800000000006 N
r0.8608000000000027 U
b10001000 :
1+
1,
#144000000
0+
0,
#144500000
r0.8583058823529438 U
r1.116188235294123 N
r0.8776470588235242 G
r1.193552941176457 @
b10001001 :
1+
1,
#145000000
0+
0,
#145500000
r1.193505882352927 @
r0.8752941176470537 G
r1.115576470588241 N
r0.8558117647058849 U
b10001010 :
1+
1,
#146000000
0+
0,
#146500000
r0.8533176470588261 U
r1.114964705882359 N
r0.8729411764705831 G
r1.193458823529398 @
b10001011 :
1+
1,
#147000000
0+
0,
#147500000
r1.193411764705868 @
r0.8705882352941126 G
r1.114352941176476 N
r0.8508235294117672 U
b10001100 :
1+
1,
#148000000
0+
0,
#148500000
r0.8483294117647083 U
r1.113741176470594 N
r0.868235294117642 G
r1.193364705882339 @
b10001101 :
1+
1,
#149000000
0+
0,
#149500000
r1.193317647058809 @
r0.8658823529411714 G
r1.113129411764712 N
r0.8458352941176495 U
b10001110 :
1+
1,
#150000000
0+
0,
#150500000
r0.8433411764705906 U
r1.112517647058829 N
r0.8635294117647009 G
r1.19327058823528 @
b10001111 :
1+
1,
#151000000
0+
0,
#151500000
r1.19322352941175 @
r0.8611764705882303 G
r1.111905882352947 N
r0.8408470588235317 U
b10010000 :
1+
1,
#152000000
0+
0,
#152500000
r0.8383529411764729 U
r1.111294117647065 N
r0.8588235294117598 G
r1.193176470588221 @
b10010001 :
1+
1,
#153000000
0+
0,
#153500000
r1.193129411764691 @
r0.8564705882352892 G
r1.110682352941182 N
r0.835858823529414 U
b10010010 :
1+
1,
#154000000
0+
0,
#154500000
r0.8333647058823551 U
r1.1100705882353 N
r0.8541176470588187 G
r1.193082352941162 @
b10010011 :
1+
1,
#155000000
0+
0,
#155500000
r1.193035294117632 @
r0.8517647058823481 G
r1.109458823529418 N
r0.8308705882352962 U
b10010100 :
1+
1,
#156000000
0+
0,
#156500000
r0.8283764705882374 U
r1.108847058823536 N
r0.8494117647058775 G
r1.192988235294103 @
b10010101 :
1+
1,
#157000000
0+
0,
#157500000
r1.192941176470573 @
r0.847058823529407 G
r1.108235294117653 N
r0.8258823529411785 U
b10010110 :
1+
1,
#158000000
0+
0,
#158500000
r0.8233882352941196 U
r1.107623529411771 N
r0.8447058823529364 G
r1.192894117647044 @
b10010111 :
1+
1,
#159000000
0+
0,
#159500000
r1.192847058823514 @
r0.8423529411764659 G
r1.107011764705889 N
r0.8208941176470608 U
b10011000 :
1+
1,
#160000000
0+
0,
#160500000
r0.8184000000000019 U
r1.106400000000006 N
r0.8399999999999953 G
r1.192799999999985 @
b10011001 :
1+
1,
#161000000
0+
0,
#161500000
r1.192752941176455 @
r0.8376470588235247 G
r1.105788235294124 N
r0.815905882352943 U
b10011010 :
1+
1,
#162000000
0+
0,
#162500000
r0.8134117647058842 U
r1.105176470588242 N
r0.8352941176470542 G
r1.192705882352926 @
b10011011 :
1+
1,
#163000000
0+
0,
#163500000
r1.192658823529396 @
r0.8329411764705836 G
r1.104564705882359 N
r0.8109176470588253 U
b10011100 :
1+
1,
#164000000
0+
0,
#164500000
r0.8084235294117664 U
r1.103952941176477 N
r0.8305882352941131 G
r1.192611764705867 @
b10011101 :
1+
1,
#165000000
0+
0,
#165500000
r1.192564705882337 @
r0.8282352941176425 G
r1.103341176470595 N
r0.8059294117647076 U
b10011110 :
1+
1,
#166000000
0+
0,
#166500000
r0.8034352941176487 U
r1.102729411764712 N
r0.825882352941172 G
r1.192517647058808 @
b10011111 :
1+
1,
#167000000
0+
0,
#167500000
r1.192470588235278 @
r0.8235294117647014 G
r1.10211764705883 N
r0.8009411764705898 U
b10100000 :
1+
1,
#168000000
0+
0,
#168500000
r0.798447058823531 U
r1.101505882352948 N
r0.8211764705882308 G
r1.192423529411749 @
b10100001 :
1+
1,
#169000000
0+
0,
#169500000
r1.192376470588219 @
r0.8188235294117603 G
r1.100894117647065 N
r0.7959529411764721 U
b10100010 :
1+
1,
#170000000
0+
0,
#170500000
r0.7934588235294132 U
r1.100282352941183 N
r0.8164705882352897 G
r1.19232941176469 @
b10100011 :
1+
1,
#171000000
0+
0,
#171500000
r1.19228235294116 @
r0.8141176470588192 G
r1.099670588235301 N
r0.7909647058823543 U
b10100100 :
1+
1,
#172000000
0+
0,
#172500000
r0.7884705882352955 U
r1.099058823529419 N
r0.8117647058823486 G
r1.192235294117631 @
b10100101 :
1+
1,
#173000000
0+
0,
#173500000
r1.192188235294101 @
r0.8094117647058781 G
r1.098447058823536 N
r0.7859764705882366 U
b10100110 :
1+
1,
#174000000
0+
0,
#174500000
r0.7834823529411777 U
r1.097835294117654 N
r0.8070588235294075 G
r1.192141176470572 @
b10100111 :
1+
1,
#175000000
0+
0,
#175500000
r1.192094117647042 @
r0.8047058823529369 G
r1.097223529411772 N
r0.7809882352941189 U
b10101000 :
1+
1,
#176000000
0+
0,
#176500000
r0.77849411764706 U
r1.096611764705889 N
r0.8023529411764664 G
r1.192047058823513 @
b10101001 :
1+
1,
#177000000
0+
0,
#177500000
r1.191999999999983 @
r0.7999999999999958 G
r1.096000000000007 N
r0.7760000000000011 U
b10101010 :
1+
1,
#178000000
0+
0,
#178500000
r0.7735058823529423 U
r1.095388235294125 N
r0.7976470588235253 G
r1.191952941176454 @
b10101011 :
1+
1,
#179000000
0+
0,
#179500000
r1.191905882352924 @
r0.7952941176470547 G
r1.094776470588242 N
r0.7710117647058834 U
b10101100 :
1+
1,
#180000000
0+
0,
#180500000
r0.7685176470588245 U
r1.09416470588236 N
r0.7929411764705842 G
r1.191858823529395 @
b10101101 :
1+
1,
#181000000
0+
0,
#181500000
r1.191811764705865 @
r0.7905882352941136 G
r1.093552941176478 N
r0.7660235294117657 U
b10101110 :
1+
1,
#182000000
0+
0,
#182500000
r0.7635294117647068 U
r1.092941176470595 N
r0.788235294117643 G
r1.191764705882336 @
b10101111 :
1+
1,
#183000000
0+
0,
#183500000
r1.191717647058806 @
r0.7858823529411725 G
r1.092329411764713 N
r0.7610352941176479 U
b10110000 :
1+
1,
#184000000
0+
0,
